<?xml version="1.0" encoding="UTF-8" ?>
<!DOCTYPE svg PUBLIC "-//W3C//DTD SVG 1.1//EN" "http://www.w3.org/Graphics/SVG/1.1/DTD/svg11.dtd">
<svg width="512pt" height="512pt" viewBox="0 0 512 512" version="1.1" xmlns="http://www.w3.org/2000/svg">
<g id="#000000ff">
<path fill="#000000" opacity="1.00" d=" M 64.15 42.36 C 78.33 42.56 92.51 42.41 106.69 42.43 C 106.65 49.60 106.64 56.77 106.67 63.94 C 120.88 64.15 135.10 64.01 149.31 63.97 C 149.45 78.15 149.17 92.33 149.46 106.51 C 135.19 106.87 120.91 106.54 106.64 106.67 C 106.70 227.64 106.62 348.61 106.68 469.58 C 92.51 469.58 78.34 469.42 64.18 469.66 C 63.89 372.13 64.14 274.59 64.05 177.06 C 64.12 132.16 63.93 87.25 64.15 42.36 Z" />
<path fill="#000000" opacity="1.00" d=" M 405.32 42.43 C 419.50 42.43 433.69 42.53 447.88 42.38 C 447.99 184.79 447.99 327.21 447.88 469.62 C 433.69 469.47 419.51 469.56 405.33 469.58 C 405.36 348.60 405.34 227.62 405.34 106.65 C 398.27 106.71 391.20 106.55 384.14 106.75 C 383.86 92.50 383.91 78.22 384.07 63.95 C 391.15 64.09 398.23 64.08 405.32 63.94 C 405.37 56.77 405.34 49.60 405.32 42.43 Z" />
<path fill="#000000" opacity="1.00" d=" M 170.67 64.01 C 177.77 63.87 184.87 63.94 191.97 64.08 C 192.11 78.29 191.98 92.50 191.92 106.71 C 184.79 106.49 177.65 106.91 170.54 106.48 C 170.83 92.33 170.56 78.17 170.67 64.01 Z" />
<path fill="#000000" opacity="1.00" d=" M 213.26 64.15 C 220.41 63.94 227.58 63.88 234.74 64.13 C 234.59 78.30 234.64 92.48 234.71 106.65 C 227.57 106.67 220.44 106.65 213.30 106.66 C 213.34 92.49 213.42 78.32 213.26 64.15 Z" />
<path fill="#000000" opacity="1.00" d=" M 256.03 64.07 C 263.12 63.87 270.22 63.95 277.31 64.04 C 277.34 100.97 277.40 137.89 277.28 174.82 C 302.59 182.69 320.04 208.54 319.91 234.73 C 312.79 234.47 305.67 234.92 298.56 234.48 C 298.45 219.21 289.77 203.94 276.15 196.76 C 266.05 191.50 253.87 190.80 243.00 193.87 C 225.51 198.82 213.50 216.66 213.43 234.50 C 206.31 234.88 199.18 234.52 192.06 234.70 C 192.03 217.02 199.32 199.36 212.17 187.16 C 223.76 176.01 239.98 170.54 255.92 170.67 C 256.12 135.14 255.92 99.60 256.03 64.07 Z" />
<path fill="#000000" opacity="1.00" d=" M 298.70 63.99 C 305.82 63.97 312.94 63.99 320.06 64.08 C 319.84 78.30 320.21 92.54 319.85 106.76 C 312.74 106.44 305.63 106.94 298.53 106.48 C 298.85 92.32 298.53 78.15 298.70 63.99 Z" />
<path fill="#000000" opacity="1.00" d=" M 341.27 64.13 C 348.42 63.74 355.58 64.05 362.73 64.12 C 362.60 78.29 362.63 92.47 362.72 106.64 C 355.58 106.68 348.44 106.65 341.30 106.66 C 341.35 92.48 341.40 78.30 341.27 64.13 Z" />
<path fill="#000000" opacity="1.00" d=" M 191.99 256.09 C 234.65 255.93 277.32 255.98 319.99 256.08 C 312.88 291.60 305.77 327.13 298.68 362.66 C 270.24 362.67 241.79 362.63 213.34 362.68 C 206.19 327.16 199.16 291.61 191.99 256.09 Z" />
<path fill="#000000" opacity="1.00" d=" M 127.95 384.11 C 213.32 383.94 298.70 383.91 384.07 384.10 C 383.75 412.49 384.17 440.89 383.95 469.28 C 381.42 469.97 378.67 469.39 376.07 469.55 C 293.42 469.60 210.77 469.45 128.12 469.62 C 127.73 441.12 128.27 412.62 127.95 384.11 Z" />
</g>
</svg>
