<?xml version="1.0" encoding="utf-8"?>
<!-- Generator: Adobe Illustrator 16.0.0, SVG Export Plug-In . SVG Version: 6.00 Build 0)  -->
<!DOCTYPE svg PUBLIC "-//W3C//DTD SVG 1.1//EN" "http://www.w3.org/Graphics/SVG/1.1/DTD/svg11.dtd">
<svg version="1.1" id="Layer_1" xmlns="http://www.w3.org/2000/svg" xmlns:xlink="http://www.w3.org/1999/xlink" x="0px" y="0px"
	 width="512px" height="512px" viewBox="0 0 512 512" enable-background="new 0 0 512 512" xml:space="preserve">
<g id="_x23_ffffffff">
	<path d="M28.29,144.81c-3.47-13.29,4.89-28.24,17.95-32.37c8.9-2.78,19.36-1.42,26.59,4.76c3.52,3.48,8.78,1.56,13.16,2.3
		c5.42,0.89,11.59,1.73,15.57,5.92c1.26,0.97,0.88,2.62,1.01,4c-4.39,4.33-10.62,5.7-16.52,6.54c-11.86,1.44-24.38,0.77-35.15-4.85
		c1.34,3.23,4.86,4.53,7.79,5.93c7.26,3.01,15.07,5.01,22.98,4.72c0.22,0.56,0.65,1.68,0.87,2.24c-1.7,7.05-5.77,13.67-11.89,17.69
		c-6.26,4.14-14.25,5.85-21.58,3.97C38.91,163.48,30.44,154.98,28.29,144.81z"/>
	<path d="M443.81,113.97c8.23-4.09,18.631-3.91,26.641,0.67c8.439,4.86,14.08,14.53,13.399,24.35c0.79,14.55-12.54,27.4-26.84,27.41
		c-13.47,0.47-26.25-10.31-27.859-23.73c3.54-0.88,7.189-1.11,10.81-1.51c6.33-1.58,12.81-3.29,18.31-6.95
		c1.211-0.72,1.94-1.93,2.69-3.08c-5.17,2.08-10.28,4.49-15.92,4.91c-10.29,0.99-21.14,0.93-30.84-3.09
		c-2.54-1.09-5.851-3.25-4.771-6.49c2.471-4,7.53-5.09,11.78-6.18c4.92-1.47,10.12-0.55,15.12-1.26
		C438.93,117.5,441.04,115.23,443.81,113.97z"/>
	<path d="M466.61,173.55c3.92-3.31,9.3-3.53,14.17-2.98c7.989,1.35,15.01,6.59,19.239,13.43c4.141,6.64,5.66,14.43,8.04,21.79
		c1.25,9.07,3.53,18.03,3.7,27.23c0.32,11.42-0.52,22.91-2.76,34.121c-1.46,3.27-3.33,6.43-5.99,8.879
		c-2.81,2.761-6.64,3.99-10.09,5.721c-2.29,10-4.81,20.02-5.61,30.289c-1.729,13.261-0.59,26.65,0.4,39.91
		c0.2-0.969,0.4-1.93,0.61-2.879c0.17,11.85,4.18,23.26,7.939,34.39c0.641,2.96,0.59,6.11,0.07,9.1
		c-2.34,6.87-9.79,12.19-17.11,11.07c-5.33-1.5-10.39-5.11-12.189-10.53c-5.98-16.39-9.82-33.63-10.761-51.061
		c-1.539-11.829-0.329-23.76,0.65-35.569c1.67-13.83,4.53-27.54,9.12-40.71c1.5-3.75,0.54-8.28,3.17-11.56
		c11.21-15.96,17.73-34.94,20.19-54.2c0.21-4.04,1.08-8.5-1.2-12.13c-2.82-4.96-9.431-7.94-14.851-5.58
		c-4.1,1.59-7.52,5.33-7.96,9.8c-0.47,5.45-1.35,10.85-2.109,16.26c-0.391,0.12-1.181,0.35-1.58,0.46
		c-0.46-5.65-2.641-11.07-2.34-16.8C459.02,185.23,461.39,178.05,466.61,173.55z"/>
	<path d="M9.3,188.55c4.31-10.11,14.33-18.52,25.72-18.17c4.84-0.23,9.86,1.88,12.69,5.89c5.1,6.8,5.84,16,3.78,24.05
		c-0.77,3.04-0.7,6.4-2.56,9.06c-1.29-5.35-2.08-10.81-2.42-16.3c-0.18-5.02-3.98-9.37-8.62-10.99c-7.01-2.65-15.76,3.35-15.7,10.86
		c-0.28,7.91,1.33,15.71,3.21,23.34c3.39,12.82,8.43,25.33,16,36.27c1.3,2.03,3.11,4.01,3.01,6.59c0.14,4.619,2.14,8.85,3.39,13.229
		c7.63,24.399,9.22,50.29,7.28,75.66c-1.65,15.55-5.1,30.931-10.6,45.569c-2.57,6.57-10.18,11.341-17.21,9.891
		c-3.77-1.46-7.67-3.44-9.88-6.97c-2.96-4.11-2.55-9.64-1.51-14.32c11.59-31.28,12.29-66.11,3.32-98.14
		c-0.81-4.49-6.51-4.141-9.25-7c-8.4-6.5-9.54-17.83-9.95-27.66v-25.52C2.13,211.89,4.68,199.87,9.3,188.55z"/>
	<path d="M31.39,184.48c5.68-1.71,12.36,2.38,12.55,8.49c1.95,26.65,14.36,53.91,37.31,68.75c3.82,2.88,9.07,4.011,11.81,8.171
		c2.93,4.229,1.38,10.51-2.88,13.26c-3.74,2.729-8.97,1.75-12.61-0.69c-21.07-11-36.91-30.52-45.24-52.6
		c-4.21-11.18-7.08-22.95-7.84-34.89C23.88,190.37,26.86,185.65,31.39,184.48z"/>
	<path d="M474.4,184.52c3.39-0.67,7.29-0.44,9.81,2.22c4.17,3.53,2.33,9.5,2.42,14.229c-2.61,20.65-10.31,40.91-23.34,57.271
		c-8.93,11.08-20.28,20.29-33.24,26.22c-3.05,0.569-6.46,0.44-8.979-1.58c-4.891-3.44-5.101-11.54-0.521-15.33
		c1.94-1.44,4.16-2.409,6.25-3.61c14.86-8.459,26.37-22.239,32.91-37.959c4.45-10.66,7.58-22.01,8.04-33.59
		C468.25,188.8,471.01,185.7,474.4,184.52z"/>
	<path d="M58.21,229.21c5.11-6.79,13.3-11.14,21.79-11.58c8.98-0.39,18.11,3.65,23.68,10.76c3.96,4.64,5.71,10.67,6.73,16.57
		c0.18,28.54-0.11,57.08,0.14,85.61c96.49-0.08,192.99,0.039,289.49-0.061c1.99,0.35,1.12-2.41,1.35-3.51
		c-0.08-26.66,0.011-53.33-0.05-80c0.101-13.44,10.03-26.71,23.65-28.71c5.35-0.13,11.01-0.81,16.06,1.41
		c5.62,2.18,10.23,6.37,13.681,11.25c-6.551,12.67-16.431,23.77-28.95,30.76c-2.71,1.59-5.78,2.76-7.9,5.181
		c-2.87,3.31-4.53,8.289-2.35,12.409c1.739,4.75,6.41,7.58,11.239,8.33c-0.05,18.81-0.01,37.62-0.029,56.42
		c0.3,6.729-6.141,12.5-12.69,12.38c-105.359,0.01-210.72,0-316.08,0.01c-6.83,0.381-13-5.619-13.26-12.379
		c-0.11-18.74,0.04-37.48-0.08-56.221c2.94-0.9,6.14-1.59,8.38-3.83c3.25-3.1,5.16-8.14,3.46-12.47c-1-3.89-4.24-6.649-7.76-8.28
		c-13.22-6.74-23.96-17.86-30.98-30.86C57.1,231.36,57.36,230.04,58.21,229.21z"/>
	<path d="M106.14,225.17c1.9-0.57,3.86-0.96,5.86-0.91c94.67,0.021,189.33,0.021,284,0c3.21,0.12,6.74-0.58,9.54,1.42
		c-5.56,6.72-8.47,15.62-8.08,24.33c0.05,25.551-0.04,51.11,0.05,76.66c-94.4-0.01-188.81-0.02-283.21,0.01
		c0.08-25.56-0.01-51.119,0.04-76.68C114.75,241.06,111.39,232.3,106.14,225.17 M119.38,291.029c0.04,9.531-0.06,19.07,0.06,28.601
		c1.67,1.181,3.26,2.979,5.51,2.681c41.04-0.011,82.08,0,123.12-0.011c2.65-0.09,5.49-2.47,5.38-5.239
		c-0.03-9.031,0.09-18.061-0.06-27.08c-0.74-1.301-1.8-2.371-2.78-3.471c-42.19-0.09-84.38-0.01-126.57-0.039
		C121.64,286.24,119.05,288.54,119.38,291.029 M258.529,289.971c-0.199,9.029-0.02,18.059-0.09,27.09
		c-0.5,3.029,2.721,5.33,5.5,5.25c41.051-0.011,82.11,0.01,123.16-0.011c2.771-0.01,5.721-2.239,5.49-5.22
		c0.021-8.721,0.05-17.43-0.01-26.141c0.1-1.969-1.86-3.069-2.93-4.43c-42.2-0.08-84.41-0.01-126.61-0.029
		C260.971,286.24,259.18,288.221,258.529,289.971z"/>
	<path d="M400.93,366.34c-2.31-1.26-2.27-6.85,1.04-6.64c4.511,0.29,9.271-0.82,13.59,0.88c-0.38,1.949,0.71,4.63-1.51,5.74
		C409.68,366.391,405.3,366.37,400.93,366.34z"/>
</g>
<g id="_x23_62626262">
	<path opacity="0.38" enable-background="new    " d="M508.06,205.79c1.87,4.81,2.801,9.89,3.94,14.91v37.7
		c-0.69,3.01-1.66,5.959-3,8.74c2.24-11.21,3.08-22.701,2.76-34.121C511.59,223.82,509.31,214.86,508.06,205.79z"/>
</g>
<g id="_x23_fefefefe">
	<path d="M96.51,359.7c4.81,0.05,9.62-0.11,14.43,0.05c1.93,1.54,1.94,4.96,0.07,6.57c-4.84,0.119-9.68-0.021-14.52,0.029
		C96.39,364.13,96.4,361.91,96.51,359.7z"/>
	<path d="M248.97,366.32c-1.81-1.53-1.86-5.131,0.07-6.58c4.84-0.061,9.71-0.221,14.54,0.189c0.01,2.09,0.01,4.18,0,6.28
		C258.71,366.45,253.83,366.38,248.97,366.32z"/>
</g>
</svg>
